{
	"name":"LosAndes",
	"key":"losandes",
	"start":[
		{
			"character":"Rubi2",
			"lines": [
				"¡El ejército de Cupido ha llegado hasta acá!", 
				"¡No puedo permitir que me atrapen sin antes ver a Cheo!"
				]					
		}
	],
	"end" :[
		{
			"character":"Cheo",
			"lines": [
				"¡Rubi! Qué bueno que viniste, el amor nos espera"
				]					
		},
		{
			"character":"Rubi2",
			"lines": [
				"¡De ninguna manera Cheo!",
				"No me uniré a ti sólo por esta excusa", 
				"Vengo a decirte que he decidido no estar contigo"
				]					
		},
		{
			"character":"Cheo",
			"lines": [
				"¿Se acabó?, ¿Segura?"
				]					
		},
		{
			"character":"Rubi2",
			"lines": [
				"Si, estoy muy segura que no quiero más esta relación",
				"Tú nunca estás para mi",
				"Viajas siempre, ¡Y SIN MI!",
				"Buscaré a mis amigos en la playa",
				"con ellos sí quiero celebrar"
				]					
		}
	] 
}