{
	"name":"Maracaibo",
	"key":"maracaibo",
	"start":[
		{
			"character":"Rubi1",
			"lines": [
				"¡El ejército de Cupido está por todas partes!",
				"Estan flechando a quienes estén solos", 
				"¡Tengo que encontrar a Cheo cuanto antes!",
				"Para jugar, usa las flechas de tu teclado", 
				"Puedes saltar con ESPACIO", 
				"¡No olvides que puedes darle pausa (p)!"
				]					
		}
	],
	"end" :[
		{
			"character":"Rubi1",
			"lines": [
				"¡Cheo, ahí estás!"
				]					
		},
		{
			"character":"Chuo",
			"lines": [
				"No Rubi, soy su hermano Chuo, Cheo está en Mérida ", 
				"¡Date prisa!", 
				"¡El ejército de Cupido te unirá con alguien a toda costa!"
				]					
		}
	] 
}