{    "assets": {
        "bg_lvl": { "type": "image", "source": "assets/images/bg_lvl2.jpg" },
        "map_tiles": { "type": "image", "source": "assets/images/tiles_spritesheet.png" },
        "player_lvl": { "type": "spritesheet", "source": "assets/images/player_lvl2.png", "frame_width": 35, "frame_height": 70, "frames": 5, "margin": 0, "spacing": 0 },
        "slime_image": { "type": "image", "source": "assets/images/slime.png" },
        "jeep": { "type": "spritesheet", "source": "assets/images/jeep.png", "frame_width": 145, "frame_height": 70, "frames": 2 },
        "jeep_fire": { "type": "spritesheet", "source": "assets/images/jeep_fire.png", "frame_width": 145, "frame_height": 82, "frames": 2 },
        "fly_spritesheet": { "type": "spritesheet", "source": "assets/images/fly_spritesheet.png", "frame_width": 37, "frame_height": 20, "frames": 2 },
        "cupid": { "type": "spritesheet", "source": "assets/images/flying_cupid_lvl2.png", "frame_width": 35, "frame_height": 50, "frames": 2 },
        "tranvia": { "type": "spritesheet", "source": "assets/images/tranvia.png", "frame_width": 140, "frame_height": 70, "frames": 2 },
        "tranvia_fire": { "type": "spritesheet", "source": "assets/images/tranvia_fire.png", "frame_width": 140, "frame_height": 95, "frames": 2 },
        "hoztcoins": { "type": "spritesheet", "source": "assets/images/hoztcoins.png", "frame_width": 35, "frame_height": 35, "frames": 4 },
        "hoztsupercoins": { "type": "spritesheet", "source": "assets/images/hoztsupercoins.png", "frame_width": 35, "frame_height": 35, "frames": 4 },
        "timecoins": { "type": "spritesheet", "source": "assets/images/timecoins.png", "frame_width": 35, "frame_height": 35, "frames": 4 },
        "timecoins15": { "type": "spritesheet", "source": "assets/images/timecoins15.png", "frame_width": 35, "frame_height": 35, "frames": 4 },
        "timecoins5": { "type": "spritesheet", "source": "assets/images/timecoins5.png", "frame_width": 35, "frame_height": 35, "frames": 4 },
        "ghostblock": { "type": "spritesheet", "source": "assets/images/ghostblock.png", "frame_width": 35, "frame_height": 35, "frames": 3 },
        "fallingblock": { "type": "spritesheet", "source": "assets/images/fallingblock.png", "frame_width": 35, "frame_height": 35, "frames": 3 },
        "goal_image": { "type": "spritesheet", "source": "assets/images/goal2.png", "frame_width": 71, "frame_height": 80, "frames": 2 },
        "level_tilemap": { "type": "tilemap", "source": "assets/maps/level2_map.json" } 
    },
    "groups": [
        "enemies",
        "goals",
        "hoztcoins",
        "timecoins",
        "dynamicblocks",
        "players"
    ],
    "map": {
        "key": "level_tilemap",
        "tileset": "map_tiles",
        "lvlname": "LosAndes",
        "nlvl": "2"
    }
}